{
    "Width": 325,
    "Height": 425,
    "Description": "Concatenate two dataframes. When concatenating horizontally, prefixes are only added to distinguish between identically-named columns unless `suffix all` is indicated.",
    "AutoExecuteOnChange": false,
    "AutoExecuteOnUpstreamChange": true,
    "ComputationDescription": {
        "DataframeInputModels": [
            {
                "Name": "first",
                "DisplayName": "first"
            },
            {
                "Name": "second",
                "DisplayName": "second"
            }
        ],
        "DataframeOutputModels": [
            {
                "Name": "output",
                "DisplayName": "output"
            }
        ],
        "AttributeConfigGroupInputDescription": {},
        "ValueInputDescription": {}
    },
    "InputUI": [],
    "InnerInputs": [
        {
            "Name": "type",
            "__discriminator": "OptionSelectorInnerInputDescription",
            "Options": [
                "horizontal",
                "vertical"
            ],
            "MaxNr": 1,
            "MinNr": 1
        },
        {
            "Name": "first suffix",
            "SubLabel": "suffix for duplicate columns from first dataframe",
            "__discriminator": "StringValueInnerInputDescription",
            "DefaultValue": "_first"
        },
        {
            "Name": "second suffix",
            "SubLabel": "suffix for duplicate columns from second dataframe",
            "__discriminator": "StringValueInnerInputDescription",
            "DefaultValue": "_second"
        },
        {
            "Name": "suffix all",
            "SubLabel": "whether to apply a suffix to all columns",
            "__discriminator": "CheckboxInnerInputDescription",
            "DefaultValue": false
        }
    ]
}