{
    "Width": 300,
    "Height": 300,
    "Description": "Extract information such as the year, month, etc. from the date/time columns of a dataframe.",
    "AutoExecuteOnChange": false,
    "AutoExecuteOnUpstreamChange": true,
    "ComputationDescription": {
        "DataframeInputModels": [
            {
                "Name": "input",
                "DisplayName": "input"
            }
        ],
        "DataframeOutputModels": [
            {
                "Name": "output",
                "DisplayName": "output"
            }
        ],
        "AttributeConfigGroupInputDescription": {},
        "ValueInputDescription": {}
    },
    "InputUI": [],
    "InnerInputs": [
        {
            "Name": "columns",
            "__discriminator": "AttributeSelectorInnerInputDescription",
            "FromDataframe": "input",
            "MaxNr": -1,
            "MinNr": 1,
            "AllowNumeric": false,
            "AllowStrings": false,
            "AllowTimestamps": true,
            "AllowBooleans": false,
            "AllowNull": false
        },
        {
            "Name": "date columns to include",
            "__discriminator": "OptionSelectorInnerInputDescription",
            "Options": [
                "year",
                "month",
                "day",
                "hour",
                "minute",
                "second",
                "microsecond",
                "nanosecond",
                "day of week"
            ],
            "MaxNr": -1,
            "MinNr": 1
        }
    ]
}